{
  "$schema": "https://ui.shadcn.com/schema.json",
  "style": "default",
  "rsc": false,
  "tsx": true,
  "tailwind": {
    "config": "tailwind.config.js",
    "css": "src/index.css",
    "baseColor": "gray",
    "cssVariables": true,
    "prefix": ""
  },
  "aliases": {
    "components": "shadcn/components",
    "utils": "shadcn/lib/utils"
  }
}
